code files/simulation/modelsim/msim_transcript
# ERROR: No extended dataflow license exists
# do processor_project_pipeline_run_msim_rtl_verilog.do
# if {[file exists rtl_work]} {
# 	vdel -lib rtl_work -all
# }
# vlib rtl_work
# vmap work rtl_work
# Model Technology ModelSim - Intel FPGA Edition vmap 10.5b Lib Mapping Utility 2016.10 Oct  5 2016
# vmap work rtl_work 
# Copying /home/alex/intelFPGA/18.1/modelsim_ase/linuxaloem/../modelsim.ini to modelsim.ini
# Modifying modelsim.ini
# 
# vlog -vlog01compat -work work +incdir+/home/alex/verilog_codes/processor_project_pipeline {/home/alex/verilog_codes/processor_project_pipeline/IM_pp.v}
# Model Technology ModelSim - Intel FPGA Edition vlog 10.5b Compiler 2016.10 Oct  5 2016
# Start time: 03:20:16 on May 25,2021
# vlog -reportprogress 300 -vlog01compat -work work "+incdir+/home/alex/verilog_codes/processor_project_pipeline" /home/alex/verilog_codes/processor_project_pipeline/IM_pp.v 
# -- Compiling module IM_pp
# 
# Top level modules:
# 	IM_pp
# End time: 03:20:16 on May 25,2021, Elapsed time: 0:00:00
# Errors: 0, Warnings: 0
# vlog -vlog01compat -work work +incdir+/home/alex/verilog_codes/processor_project_pipeline {/home/alex/verilog_codes/processor_project_pipeline/AL.v}
# Model Technology ModelSim - Intel FPGA Edition vlog 10.5b Compiler 2016.10 Oct  5 2016
# Start time: 03:20:16 on May 25,2021
# vlog -reportprogress 300 -vlog01compat -work work "+incdir+/home/alex/verilog_codes/processor_project_pipeline" /home/alex/verilog_codes/processor_project_pipeline/AL.v 
# -- Compiling module AL
# 
# Top level modules:
# 	AL
# End time: 03:20:16 on May 25,2021, Elapsed time: 0:00:00
# Errors: 0, Warnings: 0
# vlog -vlog01compat -work work +incdir+/home/alex/verilog_codes/processor_project_pipeline {/home/alex/verilog_codes/processor_project_pipeline/SE816.v}
# Model Technology ModelSim - Intel FPGA Edition vlog 10.5b Compiler 2016.10 Oct  5 2016
# Start time: 03:20:16 on May 25,2021
# vlog -reportprogress 300 -vlog01compat -work work "+incdir+/home/alex/verilog_codes/processor_project_pipeline" /home/alex/verilog_codes/processor_project_pipeline/SE816.v 
# -- Compiling module SE816
# 
# Top level modules:
# 	SE816
# End time: 03:20:16 on May 25,2021, Elapsed time: 0:00:00
# Errors: 0, Warnings: 0
# vlog -vlog01compat -work work +incdir+/home/alex/verilog_codes/processor_project_pipeline {/home/alex/verilog_codes/processor_project_pipeline/SE516.v}
# Model Technology ModelSim - Intel FPGA Edition vlog 10.5b Compiler 2016.10 Oct  5 2016
# Start time: 03:20:16 on May 25,2021
# vlog -reportprogress 300 -vlog01compat -work work "+incdir+/home/alex/verilog_codes/processor_project_pipeline" /home/alex/verilog_codes/processor_project_pipeline/SE516.v 
# -- Compiling module SE516
# 
# Top level modules:
# 	SE516
# End time: 03:20:16 on May 25,2021, Elapsed time: 0:00:00
# Errors: 0, Warnings: 0
# vlog -vlog01compat -work work +incdir+/home/alex/verilog_codes/processor_project_pipeline {/home/alex/verilog_codes/processor_project_pipeline/mod1.v}
# Model Technology ModelSim - Intel FPGA Edition vlog 10.5b Compiler 2016.10 Oct  5 2016
# Start time: 03:20:16 on May 25,2021
# vlog -reportprogress 300 -vlog01compat -work work "+incdir+/home/alex/verilog_codes/processor_project_pipeline" /home/alex/verilog_codes/processor_project_pipeline/mod1.v 
# -- Compiling module mod1
# 
# Top level modules:
# 	mod1
# End time: 03:20:16 on May 25,2021, Elapsed time: 0:00:00
# Errors: 0, Warnings: 0
# vlog -vlog01compat -work work +incdir+/home/alex/verilog_codes/processor_project_pipeline {/home/alex/verilog_codes/processor_project_pipeline/flag_pp.v}
# Model Technology ModelSim - Intel FPGA Edition vlog 10.5b Compiler 2016.10 Oct  5 2016
# Start time: 03:20:16 on May 25,2021
# vlog -reportprogress 300 -vlog01compat -work work "+incdir+/home/alex/verilog_codes/processor_project_pipeline" /home/alex/verilog_codes/processor_project_pipeline/flag_pp.v 
# -- Compiling module flag_pp
# 
# Top level modules:
# 	flag_pp
# End time: 03:20:16 on May 25,2021, Elapsed time: 0:00:00
# Errors: 0, Warnings: 0
# vlog -vlog01compat -work work +incdir+/home/alex/verilog_codes/processor_project_pipeline {/home/alex/verilog_codes/processor_project_pipeline/alu_pp.v}
# Model Technology ModelSim - Intel FPGA Edition vlog 10.5b Compiler 2016.10 Oct  5 2016
# Start time: 03:20:16 on May 25,2021
# vlog -reportprogress 300 -vlog01compat -work work "+incdir+/home/alex/verilog_codes/processor_project_pipeline" /home/alex/verilog_codes/processor_project_pipeline/alu_pp.v 
# -- Compiling module alu_pp
# 
# Top level modules:
# 	alu_pp
# End time: 03:20:16 on May 25,2021, Elapsed time: 0:00:00
# Errors: 0, Warnings: 0
# vlog -vlog01compat -work work +incdir+/home/alex/verilog_codes/processor_project_pipeline {/home/alex/verilog_codes/processor_project_pipeline/adder_pp.v}
# Model Technology ModelSim - Intel FPGA Edition vlog 10.5b Compiler 2016.10 Oct  5 2016
# Start time: 03:20:16 on May 25,2021
# vlog -reportprogress 300 -vlog01compat -work work "+incdir+/home/alex/verilog_codes/processor_project_pipeline" /home/alex/verilog_codes/processor_project_pipeline/adder_pp.v 
# -- Compiling module adder_pp
# 
# Top level modules:
# 	adder_pp
# End time: 03:20:16 on May 25,2021, Elapsed time: 0:00:00
# Errors: 0, Warnings: 0
# vlog -vlog01compat -work work +incdir+/home/alex/verilog_codes/processor_project_pipeline {/home/alex/verilog_codes/processor_project_pipeline/RF_pp.v}
# Model Technology ModelSim - Intel FPGA Edition vlog 10.5b Compiler 2016.10 Oct  5 2016
# Start time: 03:20:16 on May 25,2021
# vlog -reportprogress 300 -vlog01compat -work work "+incdir+/home/alex/verilog_codes/processor_project_pipeline" /home/alex/verilog_codes/processor_project_pipeline/RF_pp.v 
# -- Compiling module RF_pp
# 
# Top level modules:
# 	RF_pp
# End time: 03:20:16 on May 25,2021, Elapsed time: 0:00:00
# Errors: 0, Warnings: 0
# vlog -vlog01compat -work work +incdir+/home/alex/verilog_codes/processor_project_pipeline {/home/alex/verilog_codes/processor_project_pipeline/mod0.v}
# Model Technology ModelSim - Intel FPGA Edition vlog 10.5b Compiler 2016.10 Oct  5 2016
# Start time: 03:20:16 on May 25,2021
# vlog -reportprogress 300 -vlog01compat -work work "+incdir+/home/alex/verilog_codes/processor_project_pipeline" /home/alex/verilog_codes/processor_project_pipeline/mod0.v 
# -- Compiling module mod0
# 
# Top level modules:
# 	mod0
# End time: 03:20:16 on May 25,2021, Elapsed time: 0:00:00
# Errors: 0, Warnings: 0
# vlog -vlog01compat -work work +incdir+/home/alex/verilog_codes/processor_project_pipeline {/home/alex/verilog_codes/processor_project_pipeline/controller_pp.v}
# Model Technology ModelSim - Intel FPGA Edition vlog 10.5b Compiler 2016.10 Oct  5 2016
# Start time: 03:20:16 on May 25,2021
# vlog -reportprogress 300 -vlog01compat -work work "+incdir+/home/alex/verilog_codes/processor_project_pipeline" /home/alex/verilog_codes/processor_project_pipeline/controller_pp.v 
# -- Compiling module controller_pp
# 
# Top level modules:
# 	controller_pp
# End time: 03:20:16 on May 25,2021, Elapsed time: 0:00:00
# Errors: 0, Warnings: 0
# vlog -vlog01compat -work work +incdir+/home/alex/verilog_codes/processor_project_pipeline {/home/alex/verilog_codes/processor_project_pipeline/DM_pp.v}
# Model Technology ModelSim - Intel FPGA Edition vlog 10.5b Compiler 2016.10 Oct  5 2016
# Start time: 03:20:16 on May 25,2021
# vlog -reportprogress 300 -vlog01compat -work work "+incdir+/home/alex/verilog_codes/processor_project_pipeline" /home/alex/verilog_codes/processor_project_pipeline/DM_pp.v 
# -- Compiling module DM_pp
# 
# Top level modules:
# 	DM_pp
# End time: 03:20:16 on May 25,2021, Elapsed time: 0:00:00
# Errors: 0, Warnings: 0
# vlog -vlog01compat -work work +incdir+/home/alex/verilog_codes/processor_project_pipeline {/home/alex/verilog_codes/processor_project_pipeline/processor_project_pipeline.v}
# Model Technology ModelSim - Intel FPGA Edition vlog 10.5b Compiler 2016.10 Oct  5 2016
# Start time: 03:20:16 on May 25,2021
# vlog -reportprogress 300 -vlog01compat -work work "+incdir+/home/alex/verilog_codes/processor_project_pipeline" /home/alex/verilog_codes/processor_project_pipeline/processor_project_pipeline.v 
# -- Compiling module processor_project_pipeline
# 
# Top level modules:
# 	processor_project_pipeline
# End time: 03:20:16 on May 25,2021, Elapsed time: 0:00:00
# Errors: 0, Warnings: 0
# vlog -vlog01compat -work work +incdir+/home/alex/verilog_codes/processor_project_pipeline {/home/alex/verilog_codes/processor_project_pipeline/hazard_control_pp.v}
# Model Technology ModelSim - Intel FPGA Edition vlog 10.5b Compiler 2016.10 Oct  5 2016
# Start time: 03:20:16 on May 25,2021
# vlog -reportprogress 300 -vlog01compat -work work "+incdir+/home/alex/verilog_codes/processor_project_pipeline" /home/alex/verilog_codes/processor_project_pipeline/hazard_control_pp.v 
# -- Compiling module hazard_control_pp
# 
# Top level modules:
# 	hazard_control_pp
# End time: 03:20:16 on May 25,2021, Elapsed time: 0:00:00
# Errors: 0, Warnings: 0
# 
# vlog -vlog01compat -work work +incdir+/home/alex/verilog_codes/processor_project_pipeline {/home/alex/verilog_codes/processor_project_pipeline/pp_pipeline_tb1.v}
# Model Technology ModelSim - Intel FPGA Edition vlog 10.5b Compiler 2016.10 Oct  5 2016
# Start time: 03:20:16 on May 25,2021
# vlog -reportprogress 300 -vlog01compat -work work "+incdir+/home/alex/verilog_codes/processor_project_pipeline" /home/alex/verilog_codes/processor_project_pipeline/pp_pipeline_tb1.v 
# -- Compiling module pp_pipeline_tb1
# 
# Top level modules:
# 	pp_pipeline_tb1
# End time: 03:20:16 on May 25,2021, Elapsed time: 0:00:00
# Errors: 0, Warnings: 0
# 
# vsim -t 1ps -L altera_ver -L lpm_ver -L sgate_ver -L altera_mf_ver -L altera_lnsim_ver -L cycloneive_ver -L rtl_work -L work -voptargs="+acc"  pp_pipeline_tb1
# vsim -t 1ps -L altera_ver -L lpm_ver -L sgate_ver -L altera_mf_ver -L altera_lnsim_ver -L cycloneive_ver -L rtl_work -L work -voptargs=""+acc"" pp_pipeline_tb1 
# Start time: 03:20:16 on May 25,2021
# Loading work.pp_pipeline_tb1
# Loading work.processor_project_pipeline
# Loading work.SE516
# Loading work.SE816
# Loading work.AL
# Loading work.adder_pp
# Loading work.alu_pp
# Loading work.IM_pp
# Loading work.RF_pp
# Loading work.DM_pp
# Loading work.flag_pp
# Loading work.mod1
# Loading work.mod0
# Loading work.controller_pp
# Loading work.hazard_control_pp
# 
# add wave *
# view structure
# .main_pane.structure.interior.cs.body.struct
# view signals
# .main_pane.objects.interior.cs.body.tree
# run -all
# p1:     0, R0:     0 ,R1:     0 ,R2:     0 , R3:     0 , R4:     0 , R5:     0 ,R6:     0 ,R7:      0 ,stall_jump:  1 ,lookup[0]:   000000000 ,lookup[1]:  000000000 ,lookup[2]:  000000000 ,lookup[3]:  000000000  
# p1:     1, R0:     0 ,R1:     0 ,R2:     0 , R3:     0 , R4:     0 , R5:     0 ,R6:     0 ,R7:      0 ,stall_jump:  1 ,lookup[0]:   000000000 ,lookup[1]:  000000000 ,lookup[2]:  000000000 ,lookup[3]:  000000000  
# p1:     2, R0:     0 ,R1:     0 ,R2:     0 , R3:     0 , R4:     0 , R5:     0 ,R6:     0 ,R7:      1 ,stall_jump:  1 ,lookup[0]:   000000000 ,lookup[1]:  000000000 ,lookup[2]:  000000000 ,lookup[3]:  000000000  
# p1:     3, R0:     0 ,R1:     0 ,R2:     0 , R3:     0 , R4:     0 , R5:     0 ,R6:     0 ,R7:      2 ,stall_jump:  1 ,lookup[0]:   000000000 ,lookup[1]:  000000000 ,lookup[2]:  000000000 ,lookup[3]:  000000000  
# p1:     4, R0:     0 ,R1:     0 ,R2:     0 , R3:     0 , R4:     0 , R5:     0 ,R6:     0 ,R7:      3 ,stall_jump:  1 ,lookup[0]:   000000000 ,lookup[1]:  000000000 ,lookup[2]:  000000000 ,lookup[3]:  000000000  
# p1:     5, R0:     0 ,R1:     5 ,R2:     0 , R3:     0 , R4:     0 , R5:     0 ,R6:     0 ,R7:      4 ,stall_jump:  1 ,lookup[0]:   400060002 ,lookup[1]:  000000000 ,lookup[2]:  000000000 ,lookup[3]:  000000000  
# p1:     6, R0:     0 ,R1:     5 ,R2:     0 , R3:     2 , R4:     0 , R5:     0 ,R6:     0 ,R7:      5 ,stall_jump:  1 ,lookup[0]:   400060002 ,lookup[1]:  000000000 ,lookup[2]:  000000000 ,lookup[3]:  000000000  
# p1:     7, R0:     0 ,R1:     5 ,R2:     0 , R3:     2 , R4:     0 , R5:     0 ,R6:     0 ,R7:      6 ,stall_jump:  0 ,lookup[0]:   400060002 ,lookup[1]:  000000000 ,lookup[2]:  000000000 ,lookup[3]:  000000000  
# p1:     2, R0:     0 ,R1:     5 ,R2:     5 , R3:     2 , R4:     0 , R5:     0 ,R6:     0 ,R7:      7 ,stall_jump:  1 ,lookup[0]:   400060002 ,lookup[1]:  000000000 ,lookup[2]:  000000000 ,lookup[3]:  000000000  
# p1:     3, R0:     1 ,R1:     5 ,R2:     5 , R3:     2 , R4:     0 , R5:     0 ,R6:     0 ,R7:      2 ,stall_jump:  1 ,lookup[0]:   400060002 ,lookup[1]:  000000000 ,lookup[2]:  000000000 ,lookup[3]:  000000000  
# p1:     4, R0:     1 ,R1:     5 ,R2:     5 , R3:     2 , R4:     6 , R5:     0 ,R6:     0 ,R7:      3 ,stall_jump:  1 ,lookup[0]:   400060002 ,lookup[1]:  000000000 ,lookup[2]:  000000000 ,lookup[3]:  000000000  
# p1:     5, R0:     1 ,R1:     5 ,R2:     5 , R3:     2 , R4:     6 , R5:     0 ,R6:     0 ,R7:      4 ,stall_jump:  1 ,lookup[0]:   400060002 ,lookup[1]:  000000000 ,lookup[2]:  000000000 ,lookup[3]:  000000000  
# p1:     6, R0:     1 ,R1:     5 ,R2:     5 , R3:     2 , R4:     6 , R5:     0 ,R6:     0 ,R7:      5 ,stall_jump:  1 ,lookup[0]:   400060002 ,lookup[1]:  000000000 ,lookup[2]:  000000000 ,lookup[3]:  000000000  
# p1:     7, R0:     1 ,R1:     5 ,R2:     5 , R3:     2 , R4:     6 , R5:     0 ,R6:     0 ,R7:      6 ,stall_jump:  0 ,lookup[0]:   400060002 ,lookup[1]:  000000000 ,lookup[2]:  000000000 ,lookup[3]:  000000000  
# p1:     2, R0:     1 ,R1:     5 ,R2:    10 , R3:     2 , R4:     6 , R5:     0 ,R6:     0 ,R7:      7 ,stall_jump:  1 ,lookup[0]:   400060002 ,lookup[1]:  000000000 ,lookup[2]:  000000000 ,lookup[3]:  000000000  
# p1:     3, R0:     2 ,R1:     5 ,R2:    10 , R3:     2 , R4:     6 , R5:     0 ,R6:     0 ,R7:      2 ,stall_jump:  1 ,lookup[0]:   400060002 ,lookup[1]:  000000000 ,lookup[2]:  000000000 ,lookup[3]:  000000000  
# p1:     4, R0:     2 ,R1:     5 ,R2:    10 , R3:     2 , R4:     6 , R5:     0 ,R6:     0 ,R7:      3 ,stall_jump:  1 ,lookup[0]:   400060002 ,lookup[1]:  000000000 ,lookup[2]:  000000000 ,lookup[3]:  000000000  
# p1:     5, R0:     2 ,R1:     5 ,R2:    10 , R3:     2 , R4:     6 , R5:     0 ,R6:     0 ,R7:      4 ,stall_jump:  1 ,lookup[0]:   400060002 ,lookup[1]:  000000000 ,lookup[2]:  000000000 ,lookup[3]:  000000000  
# p1:     6, R0:     2 ,R1:     5 ,R2:    10 , R3:     2 , R4:     6 , R5:     0 ,R6:     0 ,R7:      5 ,stall_jump:  1 ,lookup[0]:   400060002 ,lookup[1]:  000000000 ,lookup[2]:  000000000 ,lookup[3]:  000000000  
# p1:     7, R0:     2 ,R1:     5 ,R2:    10 , R3:     2 , R4:     6 , R5:     0 ,R6:     0 ,R7:      6 ,stall_jump:  0 ,lookup[0]:   400060002 ,lookup[1]:  000000000 ,lookup[2]:  000000000 ,lookup[3]:  000000000  
# p1:     2, R0:     2 ,R1:     5 ,R2:    15 , R3:     2 , R4:     6 , R5:     0 ,R6:     0 ,R7:      7 ,stall_jump:  1 ,lookup[0]:   400060002 ,lookup[1]:  000000000 ,lookup[2]:  000000000 ,lookup[3]:  000000000  
# p1:     3, R0:     3 ,R1:     5 ,R2:    15 , R3:     2 , R4:     6 , R5:     0 ,R6:     0 ,R7:      2 ,stall_jump:  1 ,lookup[0]:   400060002 ,lookup[1]:  000000000 ,lookup[2]:  000000000 ,lookup[3]:  000000000  
# p1:     4, R0:     3 ,R1:     5 ,R2:    15 , R3:     2 , R4:     6 , R5:     0 ,R6:     0 ,R7:      3 ,stall_jump:  1 ,lookup[0]:   400060002 ,lookup[1]:  000000000 ,lookup[2]:  000000000 ,lookup[3]:  000000000  
# p1:     5, R0:     3 ,R1:     5 ,R2:    15 , R3:     2 , R4:     6 , R5:     0 ,R6:     0 ,R7:      4 ,stall_jump:  1 ,lookup[0]:   400060002 ,lookup[1]:  000000000 ,lookup[2]:  000000000 ,lookup[3]:  000000000  
# p1:     6, R0:     3 ,R1:     5 ,R2:    15 , R3:     2 , R4:     6 , R5:     0 ,R6:     0 ,R7:      5 ,stall_jump:  1 ,lookup[0]:   400060002 ,lookup[1]:  000000000 ,lookup[2]:  000000000 ,lookup[3]:  000000000  
# p1:     7, R0:     3 ,R1:     5 ,R2:    15 , R3:     2 , R4:     6 , R5:     0 ,R6:     0 ,R7:      6 ,stall_jump:  0 ,lookup[0]:   400060002 ,lookup[1]:  000000000 ,lookup[2]:  000000000 ,lookup[3]:  000000000  
# p1:     2, R0:     3 ,R1:     5 ,R2:    20 , R3:     2 , R4:     6 , R5:     0 ,R6:     0 ,R7:      7 ,stall_jump:  1 ,lookup[0]:   400060002 ,lookup[1]:  000000000 ,lookup[2]:  000000000 ,lookup[3]:  000000000  
# p1:     3, R0:     4 ,R1:     5 ,R2:    20 , R3:     2 , R4:     6 , R5:     0 ,R6:     0 ,R7:      2 ,stall_jump:  1 ,lookup[0]:   400060002 ,lookup[1]:  000000000 ,lookup[2]:  000000000 ,lookup[3]:  000000000  
# p1:     4, R0:     4 ,R1:     5 ,R2:    20 , R3:     2 , R4:     6 , R5:     0 ,R6:     0 ,R7:      3 ,stall_jump:  1 ,lookup[0]:   400060002 ,lookup[1]:  000000000 ,lookup[2]:  000000000 ,lookup[3]:  000000000  
# p1:     5, R0:     4 ,R1:     5 ,R2:    20 , R3:     2 , R4:     6 , R5:     0 ,R6:     0 ,R7:      4 ,stall_jump:  1 ,lookup[0]:   400060002 ,lookup[1]:  000000000 ,lookup[2]:  000000000 ,lookup[3]:  000000000  
# p1:     6, R0:     4 ,R1:     5 ,R2:    20 , R3:     2 , R4:     6 , R5:     0 ,R6:     0 ,R7:      5 ,stall_jump:  1 ,lookup[0]:   400060002 ,lookup[1]:  000000000 ,lookup[2]:  000000000 ,lookup[3]:  000000000  
# p1:     7, R0:     4 ,R1:     5 ,R2:    20 , R3:     2 , R4:     6 , R5:     0 ,R6:     0 ,R7:      6 ,stall_jump:  0 ,lookup[0]:   400060002 ,lookup[1]:  000000000 ,lookup[2]:  000000000 ,lookup[3]:  000000000  
# p1:     2, R0:     4 ,R1:     5 ,R2:    25 , R3:     2 , R4:     6 , R5:     0 ,R6:     0 ,R7:      7 ,stall_jump:  1 ,lookup[0]:   400060002 ,lookup[1]:  000000000 ,lookup[2]:  000000000 ,lookup[3]:  000000000  
# p1:     3, R0:     5 ,R1:     5 ,R2:    25 , R3:     2 , R4:     6 , R5:     0 ,R6:     0 ,R7:      2 ,stall_jump:  1 ,lookup[0]:   400060002 ,lookup[1]:  000000000 ,lookup[2]:  000000000 ,lookup[3]:  000000000  
# p1:     4, R0:     5 ,R1:     5 ,R2:    25 , R3:     2 , R4:     6 , R5:     0 ,R6:     0 ,R7:      3 ,stall_jump:  0 ,lookup[0]:   400060002 ,lookup[1]:  000000000 ,lookup[2]:  000000000 ,lookup[3]:  000000000  
# p1:     6, R0:     5 ,R1:     5 ,R2:    25 , R3:     2 , R4:     6 , R5:     0 ,R6:     0 ,R7:      4 ,stall_jump:  1 ,lookup[0]:   500060002 ,lookup[1]:  000000000 ,lookup[2]:  000000000 ,lookup[3]:  000000000  
# p1:     7, R0:     5 ,R1:     5 ,R2:    25 , R3:     2 , R4:     6 , R5:     0 ,R6:     0 ,R7:      6 ,stall_jump:  1 ,lookup[0]:   500060002 ,lookup[1]:  000000000 ,lookup[2]:  000000000 ,lookup[3]:  000000000  
# p1:     8, R0:     5 ,R1:     5 ,R2:    25 , R3:     2 , R4:     6 , R5:     0 ,R6:     0 ,R7:      7 ,stall_jump:  1 ,lookup[0]:   500060002 ,lookup[1]:  000000000 ,lookup[2]:  000000000 ,lookup[3]:  000000000  
# p1:     9, R0:     5 ,R1:     5 ,R2:    25 , R3:     2 , R4:     6 , R5:     0 ,R6:     0 ,R7:      8 ,stall_jump:  1 ,lookup[0]:   500060002 ,lookup[1]:  000000000 ,lookup[2]:  000000000 ,lookup[3]:  000000000  
# p1:    10, R0:     5 ,R1:     5 ,R2:    25 , R3:     2 , R4:     6 , R5:     0 ,R6:     0 ,R7:      9 ,stall_jump:  1 ,lookup[0]:   500060002 ,lookup[1]:  4000b0007 ,lookup[2]:  000000000 ,lookup[3]:  000000000  
# p1:    11, R0:     5 ,R1:     5 ,R2:    25 , R3:     7 , R4:     6 , R5:     0 ,R6:     0 ,R7:     10 ,stall_jump:  1 ,lookup[0]:   500060002 ,lookup[1]:  4000b0007 ,lookup[2]:  000000000 ,lookup[3]:  000000000  
# p1:    12, R0:     5 ,R1:     5 ,R2:    25 , R3:     7 , R4:     6 , R5:     0 ,R6:     0 ,R7:     11 ,stall_jump:  0 ,lookup[0]:   500060002 ,lookup[1]:  4000b0007 ,lookup[2]:  000000000 ,lookup[3]:  000000000  
# p1:     7, R0:     5 ,R1:     5 ,R2:    25 , R3:     7 , R4:     6 , R5:    25 ,R6:     0 ,R7:     12 ,stall_jump:  1 ,lookup[0]:   500060002 ,lookup[1]:  4000b0007 ,lookup[2]:  000000000 ,lookup[3]:  000000000  
# p1:     8, R0:     5 ,R1:     5 ,R2:    25 , R3:     7 , R4:     6 , R5:    25 ,R6:     1 ,R7:      7 ,stall_jump:  1 ,lookup[0]:   500060002 ,lookup[1]:  4000b0007 ,lookup[2]:  000000000 ,lookup[3]:  000000000  
# p1:     9, R0:    11 ,R1:     5 ,R2:    25 , R3:     7 , R4:     6 , R5:    25 ,R6:     1 ,R7:      8 ,stall_jump:  1 ,lookup[0]:   500060002 ,lookup[1]:  4000b0007 ,lookup[2]:  000000000 ,lookup[3]:  000000000  
# p1:    10, R0:    11 ,R1:     5 ,R2:    25 , R3:     7 , R4:     6 , R5:    25 ,R6:     1 ,R7:      9 ,stall_jump:  1 ,lookup[0]:   500060002 ,lookup[1]:  4000b0007 ,lookup[2]:  000000000 ,lookup[3]:  000000000  
# p1:    11, R0:    11 ,R1:     5 ,R2:    25 , R3:     7 , R4:     6 , R5:    25 ,R6:     1 ,R7:     10 ,stall_jump:  1 ,lookup[0]:   500060002 ,lookup[1]:  4000b0007 ,lookup[2]:  000000000 ,lookup[3]:  000000000  
# p1:    12, R0:    11 ,R1:     5 ,R2:    25 , R3:     7 , R4:     6 , R5:    25 ,R6:     1 ,R7:     11 ,stall_jump:  0 ,lookup[0]:   500060002 ,lookup[1]:  4000b0007 ,lookup[2]:  000000000 ,lookup[3]:  000000000  
# p1:     7, R0:    11 ,R1:     5 ,R2:    25 , R3:     7 , R4:     6 , R5:    50 ,R6:     1 ,R7:     12 ,stall_jump:  1 ,lookup[0]:   500060002 ,lookup[1]:  4000b0007 ,lookup[2]:  000000000 ,lookup[3]:  000000000  
# p1:     8, R0:    11 ,R1:     5 ,R2:    25 , R3:     7 , R4:     6 , R5:    50 ,R6:     2 ,R7:      7 ,stall_jump:  1 ,lookup[0]:   500060002 ,lookup[1]:  4000b0007 ,lookup[2]:  000000000 ,lookup[3]:  000000000  
# p1:     9, R0:    11 ,R1:     5 ,R2:    25 , R3:     7 , R4:     6 , R5:    50 ,R6:     2 ,R7:      8 ,stall_jump:  1 ,lookup[0]:   500060002 ,lookup[1]:  4000b0007 ,lookup[2]:  000000000 ,lookup[3]:  000000000  
# p1:    10, R0:    11 ,R1:     5 ,R2:    25 , R3:     7 , R4:     6 , R5:    50 ,R6:     2 ,R7:      9 ,stall_jump:  1 ,lookup[0]:   500060002 ,lookup[1]:  4000b0007 ,lookup[2]:  000000000 ,lookup[3]:  000000000  
# p1:    11, R0:    11 ,R1:     5 ,R2:    25 , R3:     7 , R4:     6 , R5:    50 ,R6:     2 ,R7:     10 ,stall_jump:  1 ,lookup[0]:   500060002 ,lookup[1]:  4000b0007 ,lookup[2]:  000000000 ,lookup[3]:  000000000  
# p1:    12, R0:    11 ,R1:     5 ,R2:    25 , R3:     7 , R4:     6 , R5:    50 ,R6:     2 ,R7:     11 ,stall_jump:  0 ,lookup[0]:   500060002 ,lookup[1]:  4000b0007 ,lookup[2]:  000000000 ,lookup[3]:  000000000  
# p1:     7, R0:    11 ,R1:     5 ,R2:    25 , R3:     7 , R4:     6 , R5:    75 ,R6:     2 ,R7:     12 ,stall_jump:  1 ,lookup[0]:   500060002 ,lookup[1]:  4000b0007 ,lookup[2]:  000000000 ,lookup[3]:  000000000  
# p1:     8, R0:    11 ,R1:     5 ,R2:    25 , R3:     7 , R4:     6 , R5:    75 ,R6:     3 ,R7:      7 ,stall_jump:  1 ,lookup[0]:   500060002 ,lookup[1]:  4000b0007 ,lookup[2]:  000000000 ,lookup[3]:  000000000  
# p1:     9, R0:    11 ,R1:     5 ,R2:    25 , R3:     7 , R4:     6 , R5:    75 ,R6:     3 ,R7:      8 ,stall_jump:  1 ,lookup[0]:   500060002 ,lookup[1]:  4000b0007 ,lookup[2]:  000000000 ,lookup[3]:  000000000  
# p1:    10, R0:    11 ,R1:     5 ,R2:    25 , R3:     7 , R4:     6 , R5:    75 ,R6:     3 ,R7:      9 ,stall_jump:  1 ,lookup[0]:   500060002 ,lookup[1]:  4000b0007 ,lookup[2]:  000000000 ,lookup[3]:  000000000  
# p1:    11, R0:    11 ,R1:     5 ,R2:    25 , R3:     7 , R4:     6 , R5:    75 ,R6:     3 ,R7:     10 ,stall_jump:  1 ,lookup[0]:   500060002 ,lookup[1]:  4000b0007 ,lookup[2]:  000000000 ,lookup[3]:  000000000  
# p1:    12, R0:    11 ,R1:     5 ,R2:    25 , R3:     7 , R4:     6 , R5:    75 ,R6:     3 ,R7:     11 ,stall_jump:  0 ,lookup[0]:   500060002 ,lookup[1]:  4000b0007 ,lookup[2]:  000000000 ,lookup[3]:  000000000  
# p1:     7, R0:    11 ,R1:     5 ,R2:    25 , R3:     7 , R4:     6 , R5:   100 ,R6:     3 ,R7:     12 ,stall_jump:  1 ,lookup[0]:   500060002 ,lookup[1]:  4000b0007 ,lookup[2]:  000000000 ,lookup[3]:  000000000  
# p1:     8, R0:    11 ,R1:     5 ,R2:    25 , R3:     7 , R4:     6 , R5:   100 ,R6:     4 ,R7:      7 ,stall_jump:  1 ,lookup[0]:   500060002 ,lookup[1]:  4000b0007 ,lookup[2]:  000000000 ,lookup[3]:  000000000  
# p1:     9, R0:    11 ,R1:     5 ,R2:    25 , R3:     7 , R4:     6 , R5:   100 ,R6:     4 ,R7:      8 ,stall_jump:  1 ,lookup[0]:   500060002 ,lookup[1]:  4000b0007 ,lookup[2]:  000000000 ,lookup[3]:  000000000  
# p1:    10, R0:    11 ,R1:     5 ,R2:    25 , R3:     7 , R4:     6 , R5:   100 ,R6:     4 ,R7:      9 ,stall_jump:  1 ,lookup[0]:   500060002 ,lookup[1]:  4000b0007 ,lookup[2]:  000000000 ,lookup[3]:  000000000  
# p1:    11, R0:    11 ,R1:     5 ,R2:    25 , R3:     7 , R4:     6 , R5:   100 ,R6:     4 ,R7:     10 ,stall_jump:  1 ,lookup[0]:   500060002 ,lookup[1]:  4000b0007 ,lookup[2]:  000000000 ,lookup[3]:  000000000  
# p1:    12, R0:    11 ,R1:     5 ,R2:    25 , R3:     7 , R4:     6 , R5:   100 ,R6:     4 ,R7:     11 ,stall_jump:  0 ,lookup[0]:   500060002 ,lookup[1]:  4000b0007 ,lookup[2]:  000000000 ,lookup[3]:  000000000  
# p1:     7, R0:    11 ,R1:     5 ,R2:    25 , R3:     7 , R4:     6 , R5:   125 ,R6:     4 ,R7:     12 ,stall_jump:  1 ,lookup[0]:   500060002 ,lookup[1]:  4000b0007 ,lookup[2]:  000000000 ,lookup[3]:  000000000  
# p1:     8, R0:    11 ,R1:     5 ,R2:    25 , R3:     7 , R4:     6 , R5:   125 ,R6:     5 ,R7:      7 ,stall_jump:  1 ,lookup[0]:   500060002 ,lookup[1]:  4000b0007 ,lookup[2]:  000000000 ,lookup[3]:  000000000  
# p1:     9, R0:    11 ,R1:     5 ,R2:    25 , R3:     7 , R4:     6 , R5:   125 ,R6:     5 ,R7:      8 ,stall_jump:  0 ,lookup[0]:   500060002 ,lookup[1]:  4000b0007 ,lookup[2]:  000000000 ,lookup[3]:  000000000  
# p1:    11, R0:    11 ,R1:     5 ,R2:    25 , R3:     7 , R4:     6 , R5:   125 ,R6:     5 ,R7:      9 ,stall_jump:  1 ,lookup[0]:   500060002 ,lookup[1]:  5000b0007 ,lookup[2]:  000000000 ,lookup[3]:  000000000  
# p1:    12, R0:    11 ,R1:     5 ,R2:    25 , R3:     7 , R4:     6 , R5:   125 ,R6:     5 ,R7:     11 ,stall_jump:  1 ,lookup[0]:   500060002 ,lookup[1]:  5000b0007 ,lookup[2]:  000000000 ,lookup[3]:  000000000  
